<svg width="696" height="379" viewBox="0 0 696 379" fill="none" xmlns="http://www.w3.org/2000/svg">
<rect x="25" y="21" width="671" height="358" rx="20" fill="#7AC6FE"/>
<rect x="1.5" y="1.5" width="668" height="350" rx="18.5" fill="#FDFCFA" stroke="#0C8CE9" stroke-width="3"/>
<path d="M88.264 51.6818V59.4546H85.7158V42H88.23V48.4943H88.3919C88.6987 47.7898 89.1675 47.2301 89.7981 46.8154C90.4288 46.4006 91.2527 46.1932 92.2697 46.1932C93.1675 46.1932 93.9515 46.3779 94.622 46.7472C95.2981 47.1165 95.8209 47.6676 96.1902 48.4006C96.5652 49.1279 96.7527 50.0369 96.7527 51.1279V59.4546H94.2044V51.4347C94.2044 50.4744 93.9572 49.7301 93.4629 49.2017C92.9686 48.6676 92.2811 48.4006 91.4004 48.4006C90.7981 48.4006 90.2584 48.5284 89.7811 48.7841C89.3095 49.0398 88.9373 49.4148 88.6646 49.9091C88.3976 50.3977 88.264 50.9887 88.264 51.6818ZM107.464 46.3636V48.4091H100.313V46.3636H107.464ZM102.231 43.2273H104.779V55.6108C104.779 56.1051 104.853 56.4773 105.001 56.7273C105.149 56.9716 105.339 57.1392 105.572 57.2301C105.811 57.3154 106.069 57.358 106.348 57.358C106.552 57.358 106.731 57.3438 106.885 57.3154C107.038 57.2869 107.157 57.2642 107.242 57.2472L107.703 59.3523C107.555 59.4091 107.345 59.4659 107.072 59.5227C106.799 59.5852 106.458 59.6193 106.049 59.625C105.379 59.6364 104.754 59.5171 104.174 59.2671C103.595 59.0171 103.126 58.6307 102.768 58.108C102.41 57.5852 102.231 56.929 102.231 56.1392V43.2273ZM117.594 46.3636V48.4091H110.443V46.3636H117.594ZM112.361 43.2273H114.909V55.6108C114.909 56.1051 114.983 56.4773 115.131 56.7273C115.278 56.9716 115.469 57.1392 115.702 57.2301C115.94 57.3154 116.199 57.358 116.477 57.358C116.682 57.358 116.861 57.3438 117.014 57.3154C117.168 57.2869 117.287 57.2642 117.372 57.2472L117.832 59.3523C117.685 59.4091 117.474 59.4659 117.202 59.5227C116.929 59.5852 116.588 59.6193 116.179 59.625C115.509 59.6364 114.884 59.5171 114.304 59.2671C113.724 59.0171 113.256 58.6307 112.898 58.108C112.54 57.5852 112.361 56.929 112.361 56.1392V43.2273ZM121.613 64.3637V46.3636H124.101V48.4858H124.314C124.462 48.2131 124.675 47.8977 124.954 47.5398C125.232 47.1818 125.618 46.8693 126.113 46.6023C126.607 46.3296 127.26 46.1932 128.073 46.1932C129.13 46.1932 130.073 46.4602 130.902 46.9943C131.732 47.5284 132.383 48.2983 132.854 49.304C133.331 50.3097 133.57 51.5199 133.57 52.9347C133.57 54.3494 133.334 55.5625 132.863 56.5739C132.391 57.5796 131.743 58.3551 130.919 58.9006C130.096 59.4404 129.155 59.7102 128.098 59.7102C127.303 59.7102 126.652 59.5767 126.147 59.3097C125.647 59.0426 125.255 58.7301 124.971 58.3722C124.686 58.0142 124.468 57.696 124.314 57.4176H124.161V64.3637H121.613ZM124.11 52.9091C124.11 53.8296 124.243 54.6364 124.51 55.3296C124.777 56.0227 125.164 56.5654 125.669 56.9574C126.175 57.3438 126.794 57.5369 127.527 57.5369C128.289 57.5369 128.925 57.3352 129.436 56.9318C129.948 56.5227 130.334 55.9688 130.596 55.2699C130.863 54.571 130.996 53.7841 130.996 52.9091C130.996 52.0455 130.865 51.2699 130.604 50.5824C130.348 49.8949 129.962 49.3523 129.445 48.9546C128.934 48.5568 128.294 48.358 127.527 48.358C126.789 48.358 126.164 48.5483 125.652 48.929C125.147 49.3097 124.763 49.8409 124.502 50.5227C124.24 51.2046 124.11 52 124.11 52.9091ZM147.435 49.5597L145.125 49.9688C145.029 49.6733 144.875 49.3921 144.665 49.125C144.46 48.858 144.182 48.6392 143.83 48.4688C143.477 48.2983 143.037 48.2131 142.509 48.2131C141.787 48.2131 141.185 48.375 140.702 48.6989C140.219 49.0171 139.977 49.429 139.977 49.9347C139.977 50.3722 140.139 50.7244 140.463 50.9915C140.787 51.2585 141.31 51.4773 142.031 51.6477L144.111 52.125C145.315 52.4034 146.213 52.8324 146.804 53.4119C147.395 53.9915 147.69 54.7443 147.69 55.6705C147.69 56.4546 147.463 57.1534 147.009 57.7671C146.56 58.375 145.932 58.8523 145.125 59.1989C144.324 59.5455 143.395 59.7188 142.338 59.7188C140.872 59.7188 139.676 59.4063 138.75 58.7813C137.824 58.1506 137.256 57.2557 137.046 56.0966L139.509 55.7216C139.662 56.3637 139.977 56.8494 140.455 57.179C140.932 57.5029 141.554 57.6648 142.321 57.6648C143.156 57.6648 143.824 57.4915 144.324 57.1449C144.824 56.7926 145.074 56.3637 145.074 55.858C145.074 55.4489 144.921 55.1051 144.614 54.8267C144.313 54.5483 143.85 54.3381 143.225 54.196L141.009 53.7102C139.787 53.4318 138.884 52.9887 138.298 52.3807C137.719 51.7727 137.429 51.0029 137.429 50.071C137.429 49.2983 137.645 48.6222 138.077 48.0426C138.509 47.4631 139.105 47.0114 139.867 46.6875C140.628 46.358 141.5 46.1932 142.483 46.1932C143.898 46.1932 145.011 46.5 145.824 47.1136C146.636 47.7216 147.173 48.5369 147.435 49.5597ZM153.371 59.6165C152.905 59.6165 152.505 59.4517 152.17 59.1222C151.834 58.7869 151.667 58.3835 151.667 57.9119C151.667 57.446 151.834 57.0483 152.17 56.7188C152.505 56.3835 152.905 56.2159 153.371 56.2159C153.837 56.2159 154.238 56.3835 154.573 56.7188C154.908 57.0483 155.076 57.446 155.076 57.9119C155.076 58.2244 154.996 58.5114 154.837 58.7727C154.684 59.0284 154.479 59.233 154.224 59.3864C153.968 59.5398 153.684 59.6165 153.371 59.6165ZM153.371 50.0881C152.905 50.0881 152.505 49.9205 152.17 49.5852C151.834 49.25 151.667 48.8494 151.667 48.3835C151.667 47.9176 151.834 47.5199 152.17 47.1904C152.505 46.8551 152.905 46.6875 153.371 46.6875C153.837 46.6875 154.238 46.8551 154.573 47.1904C154.908 47.5199 155.076 47.9176 155.076 48.3835C155.076 48.696 154.996 48.983 154.837 49.2443C154.684 49.5 154.479 49.7046 154.224 49.858C153.968 50.0114 153.684 50.0881 153.371 50.0881ZM166.337 41.1818L160.712 62.0796H158.436L164.061 41.1818H166.337ZM176.349 41.1818L170.724 62.0796H168.449L174.074 41.1818H176.349ZM423.043 59.6165C422.577 59.6165 422.177 59.4517 421.841 59.1222C421.506 58.7869 421.339 58.3835 421.339 57.9119C421.339 57.446 421.506 57.0483 421.841 56.7188C422.177 56.3835 422.577 56.2159 423.043 56.2159C423.509 56.2159 423.91 56.3835 424.245 56.7188C424.58 57.0483 424.748 57.446 424.748 57.9119C424.748 58.2244 424.668 58.5114 424.509 58.7727C424.356 59.0284 424.151 59.233 423.895 59.3864C423.64 59.5398 423.356 59.6165 423.043 59.6165ZM434.262 59.7102C433.205 59.7102 432.262 59.4404 431.432 58.9006C430.608 58.3551 429.961 57.5796 429.489 56.5739C429.023 55.5625 428.79 54.3494 428.79 52.9347C428.79 51.5199 429.026 50.3097 429.497 49.304C429.975 48.2983 430.628 47.5284 431.458 46.9943C432.287 46.4602 433.228 46.1932 434.279 46.1932C435.091 46.1932 435.745 46.3296 436.239 46.6023C436.739 46.8693 437.125 47.1818 437.398 47.5398C437.676 47.8977 437.892 48.2131 438.046 48.4858H438.199V42H440.747V59.4546H438.259V57.4176H438.046C437.892 57.696 437.671 58.0142 437.381 58.3722C437.097 58.7301 436.705 59.0426 436.205 59.3097C435.705 59.5767 435.057 59.7102 434.262 59.7102ZM434.824 57.5369C435.557 57.5369 436.176 57.3438 436.682 56.9574C437.193 56.5654 437.58 56.0227 437.841 55.3296C438.108 54.6364 438.242 53.8296 438.242 52.9091C438.242 52 438.111 51.2046 437.85 50.5227C437.588 49.8409 437.205 49.3097 436.699 48.929C436.193 48.5483 435.568 48.358 434.824 48.358C434.057 48.358 433.418 48.5568 432.907 48.9546C432.395 49.3523 432.009 49.8949 431.747 50.5824C431.492 51.2699 431.364 52.0455 431.364 52.9091C431.364 53.7841 431.495 54.571 431.756 55.2699C432.017 55.9688 432.404 56.5227 432.915 56.9318C433.432 57.3352 434.068 57.5369 434.824 57.5369ZM451.099 59.7188C449.871 59.7188 448.8 59.4375 447.886 58.875C446.971 58.3125 446.261 57.5256 445.755 56.5142C445.249 55.5029 444.996 54.321 444.996 52.9688C444.996 51.6108 445.249 50.4233 445.755 49.4063C446.261 48.3892 446.971 47.5994 447.886 47.0369C448.8 46.4744 449.871 46.1932 451.099 46.1932C452.326 46.1932 453.397 46.4744 454.312 47.0369C455.227 47.5994 455.937 48.3892 456.442 49.4063C456.948 50.4233 457.201 51.6108 457.201 52.9688C457.201 54.321 456.948 55.5029 456.442 56.5142C455.937 57.5256 455.227 58.3125 454.312 58.875C453.397 59.4375 452.326 59.7188 451.099 59.7188ZM451.107 57.5796C451.903 57.5796 452.562 57.3693 453.084 56.9489C453.607 56.5284 453.994 55.9688 454.244 55.2699C454.499 54.571 454.627 53.8012 454.627 52.9602C454.627 52.125 454.499 51.358 454.244 50.6591C453.994 49.9546 453.607 49.3892 453.084 48.9631C452.562 48.5369 451.903 48.3239 451.107 48.3239C450.306 48.3239 449.641 48.5369 449.113 48.9631C448.59 49.3892 448.201 49.9546 447.945 50.6591C447.695 51.358 447.57 52.125 447.57 52.9602C447.57 53.8012 447.695 54.571 447.945 55.2699C448.201 55.9688 448.59 56.5284 449.113 56.9489C449.641 57.3693 450.306 57.5796 451.107 57.5796ZM461.245 59.4546V46.3636H463.691V48.4943H463.853C464.126 47.7727 464.572 47.2102 465.191 46.8068C465.811 46.3977 466.552 46.1932 467.416 46.1932C468.291 46.1932 469.024 46.3977 469.615 46.8068C470.211 47.2159 470.652 47.7784 470.936 48.4943H471.072C471.385 47.7955 471.882 47.2386 472.564 46.8239C473.245 46.4034 474.058 46.1932 475.001 46.1932C476.189 46.1932 477.157 46.5654 477.907 47.3097C478.663 48.054 479.041 49.1761 479.041 50.6761V59.4546H476.493V50.9148C476.493 50.0284 476.251 49.3864 475.768 48.9886C475.285 48.5909 474.709 48.3921 474.038 48.3921C473.209 48.3921 472.564 48.6477 472.103 49.1591C471.643 49.6648 471.413 50.3154 471.413 51.1108V59.4546H468.873V50.7529C468.873 50.0426 468.652 49.4716 468.209 49.0398C467.765 48.608 467.189 48.3921 466.478 48.3921C465.995 48.3921 465.549 48.5199 465.14 48.7756C464.737 49.0256 464.41 49.375 464.16 49.8239C463.916 50.2727 463.794 50.7926 463.794 51.3835V59.4546H461.245ZM487.466 59.7443C486.636 59.7443 485.886 59.5909 485.216 59.2841C484.546 58.9716 484.014 58.5199 483.622 57.929C483.236 57.3381 483.043 56.6137 483.043 55.7557C483.043 55.0171 483.185 54.4091 483.469 53.9318C483.753 53.4546 484.136 53.0767 484.619 52.7983C485.102 52.5199 485.642 52.3097 486.239 52.1676C486.835 52.0256 487.443 51.9176 488.063 51.8438C488.847 51.7529 489.483 51.679 489.972 51.6222C490.46 51.5597 490.815 51.4602 491.037 51.3239C491.259 51.1875 491.369 50.9659 491.369 50.6591V50.5994C491.369 49.8551 491.159 49.2784 490.739 48.8693C490.324 48.4602 489.705 48.2557 488.881 48.2557C488.023 48.2557 487.347 48.446 486.852 48.8267C486.364 49.2017 486.026 49.6193 485.838 50.0796L483.443 49.5341C483.727 48.7387 484.142 48.0966 484.688 47.608C485.239 47.1136 485.872 46.7557 486.588 46.5341C487.304 46.3068 488.057 46.1932 488.847 46.1932C489.369 46.1932 489.923 46.2557 490.509 46.3807C491.1 46.5 491.651 46.7216 492.162 47.0455C492.679 47.3693 493.102 47.8324 493.432 48.4347C493.761 49.0313 493.926 49.8068 493.926 50.7614V59.4546H491.438V57.6648H491.335C491.171 57.9943 490.923 58.3182 490.594 58.6364C490.264 58.9546 489.841 59.2188 489.324 59.429C488.807 59.6392 488.188 59.7443 487.466 59.7443ZM488.02 57.6989C488.725 57.6989 489.327 57.5597 489.827 57.2813C490.333 57.0029 490.716 56.6392 490.977 56.1904C491.244 55.7358 491.378 55.25 491.378 54.733V53.0455C491.287 53.1364 491.111 53.2216 490.85 53.3011C490.594 53.375 490.301 53.4404 489.972 53.4972C489.642 53.5483 489.321 53.5966 489.009 53.6421C488.696 53.6818 488.435 53.7159 488.225 53.7443C487.73 53.8068 487.279 53.9119 486.869 54.0597C486.466 54.2074 486.142 54.4205 485.898 54.6989C485.659 54.9716 485.54 55.3352 485.54 55.7898C485.54 56.4205 485.773 56.8977 486.239 57.2216C486.705 57.5398 487.298 57.6989 488.02 57.6989ZM498.52 59.4546V46.3636H501.069V59.4546H498.52ZM499.807 44.3438C499.364 44.3438 498.984 44.196 498.665 43.9006C498.353 43.5994 498.197 43.2415 498.197 42.8267C498.197 42.4063 498.353 42.0483 498.665 41.7529C498.984 41.4517 499.364 41.3011 499.807 41.3011C500.251 41.3011 500.628 41.4517 500.941 41.7529C501.259 42.0483 501.418 42.4063 501.418 42.8267C501.418 43.2415 501.259 43.5994 500.941 43.9006C500.628 44.196 500.251 44.3438 499.807 44.3438ZM508.245 51.6818V59.4546H505.697V46.3636H508.143V48.4943H508.305C508.606 47.8012 509.078 47.2443 509.72 46.8239C510.367 46.4034 511.183 46.1932 512.166 46.1932C513.058 46.1932 513.839 46.3807 514.51 46.7557C515.18 47.125 515.7 47.6762 516.069 48.4091C516.438 49.1421 516.623 50.0483 516.623 51.1279V59.4546H514.075V51.4347C514.075 50.4858 513.828 49.7443 513.333 49.2102C512.839 48.6705 512.16 48.4006 511.296 48.4006C510.706 48.4006 510.18 48.5284 509.72 48.7841C509.265 49.0398 508.904 49.4148 508.637 49.9091C508.376 50.3977 508.245 50.9887 508.245 51.6818Z" fill="#0C8CE9"/>
<rect x="21.5" y="26.5" width="542" height="48" rx="18.5" stroke="#0C8CE9" stroke-width="3"/>
<path d="M53.0895 61.1485C51.322 62.9547 48.9247 63.9694 46.425 63.9694C43.9253 63.9694 41.528 62.9547 39.7605 61.1485C37.993 59.3424 37 56.8927 37 54.3383C37 51.784 37.993 49.3343 39.7605 47.5281" stroke="#0C8CE9" stroke-width="3" stroke-linecap="round"/>
<path d="M46.9105 41.5074C48.678 39.902 51.0753 39 53.575 39C56.0747 39 58.472 39.902 60.2395 41.5074C62.007 43.1129 63 45.2904 63 47.5609C63 49.8314 62.007 52.009 60.2395 53.6144" stroke="#0C8CE9" stroke-width="3" stroke-linecap="round"/>
<path d="M53.25 47.561L46.1 54.6951" stroke="#0C8CE9" stroke-width="3" stroke-linecap="round"/>
<line x1="178.364" y1="57.5372" x2="414.062" y2="57.5372" stroke="#0C8CE9" stroke-width="2"/>
<line x1="49.918" y1="121.012" x2="308.943" y2="121.012" stroke="#7AC6FE" stroke-width="15"/>
<line x1="48.9761" y1="174.136" x2="562.312" y2="174.136" stroke="#7AC6FE" stroke-width="15"/>
<line x1="48.9761" y1="217.872" x2="609.406" y2="217.872" stroke="#7AC6FE" stroke-width="15"/>
<line x1="48.9761" y1="262.5" x2="458.704" y2="262.5" stroke="#7AC6FE" stroke-width="15"/>
<circle cx="588.5" cy="50.5" r="9.5" fill="#7AC6FE"/>
<circle cx="615.5" cy="50.5" r="9.5" fill="#7AC6FE"/>
<circle cx="640.5" cy="50.5" r="9.5" fill="#7AC6FE"/>
</svg>
